^D:\VCPROJ\HFOREST\HFOREST\DEBUG\HFOREST_MANIFEST.RC
D:\VCPROJ\HFOREST\HFOREST\DEBUG\HFOREST.EXE.EMBED.MANIFEST
^C:\RESEARCHDOCUMENTS\VCPROJ\HOUGHFOREST\HFOREST\DEBUG\HFOREST_MANIFEST.RC
C:\WINDOWS\GLOBALIZATION\SORTING\SORTDEFAULT.NLS
C:\RESEARCHDOCUMENTS\VCPROJ\HOUGHFOREST\HFOREST\DEBUG\HFOREST.EXE.EMBED.MANIFEST
